…
### Built-In Filters

`{filters}` comes with a built-in filter library. You can list them using `list_all_filters()`.

``` r
list_all_filters()
```

    # A tibble: 272 x 4
       id     title                      target condition                      
       <chr>  <chr>                      <chr>  <chr>                          
     1 COV    Confirmed/Suspected COVID… ADAE   ACOVFL == 'Y'                  
     2 COVAS  AEs Associated with COVID… ADAE   ACOVASFL == 'Y'                
     3 CTC35  Grade 3-5 Adverse Events   ADAE   ATOXGR %in% c('3', '4', '5')   
     4 DSC    Adverse Events Leading to… ADAE   AEACN == 'DRUG WITHDRAWN'      
     5 DSM    Adverse Events Leading to… ADAE   AEACN %in% c('DOSE INCREASED',…
     6 FATAL  Fatal Adverse Events       ADAE   AESDTH == 'Y'                  
     7 NCOV   Excluding Confirmed/Suspe… ADAE   ACOVFL != 'Y'                  
     8 NCOVAS AEs not Associated with C… ADAE   ACOVASFL != 'Y'                
     9 NFATAL Non-fatal Adverse Events   ADAE   AESDTH == 'N'                  
    10 NREL   Adverse Events not Relate… ADAE   AREL == 'N'                    
    # … with 262 more rows
…
