List All Filters — list_all_filters • filters
…
list_all_filters()

    Value

A data.frame with columns id, title, target and condition

    Author

    Thomas Neitmann (neitmant)

    Examples

list_all_filters()
#> # A tibble: 275 × 4
#>    id    title                                                  target condition
#>    <chr> <chr>                                                  <chr>  <chr>    
#>  1 5PER  Adverse Events with a Difference of at Least 5% betwe… ADAE   1 == 1   
#>  2 COV   Confirmed/Suspected COVID-19 AEs                       ADAE   ACOVFL =…
#>  3 COVAS AEs Associated with COVID-19                           ADAE   ACOVASFL…
#>  4 CTC35 Grade 3-5 Adverse Events                               ADAE   ATOXGR %…
#>  5 CTC4  Grade 4 Adverse Event                                  ADAE   AETOXGR …
#>  6 CTC5  Grade 5 Adverse Event                                  ADAE   AETOXGR …
#>  7 DSC   Adverse Events Leading to Study Treatment Discontinua… ADAE   AEACN ==…
#>  8 DSM   Adverse Events Leading to Dose Modification or Interr… ADAE   AEACN %i…
#>  9 FATAL Fatal Adverse Events                                   ADAE   AESDTH =…
#> 10 NCOV  Excluding Confirmed/Suspected COVID-19 AEs             ADAE   ACOVFL !…
#> # ℹ 265 more rows
…
